0.0000000000000000 3.0000000000000000
5.0000000000000003E-002 3.0001271633697439
0.10000000000000001 3.0005086139116997
0.15000000000000002 3.0011442331568770
0.20000000000000001 3.0020338244303018
0.25000000000000000 3.0031771140015238
0.29999999999999999 3.0045737526762988
0.34999999999999998 3.0062233178110045
0.39999999999999997 3.0081253157262702
0.44999999999999996 3.0102791844921044
0.49999999999999994 3.0126842970527066
0.54999999999999993 3.0153399646556833
0.59999999999999998 3.0182454405474677
0.65000000000000002 3.0213999238943949
0.70000000000000007 3.0248025638871394
0.75000000000000011 3.0284524639851624
0.80000000000000016 3.0323486862573441
0.85000000000000020 3.0364902557751403
0.90000000000000024 3.0408761650154514
0.95000000000000029 3.0455053782317694
1.0000000000000002 3.0503768357540513
1.0500000000000003 3.0554894581803529
1.1000000000000003 3.0608421504259451
1.1500000000000004 3.0664338055991647
1.2000000000000004 3.0722633086766327
1.2500000000000004 3.0783295399544062
1.3000000000000005 3.0846313782557435
1.3500000000000005 3.0911677038800369
1.4000000000000006 3.0979374012818797
1.4500000000000006 3.1049393614731158
1.5000000000000007 3.1121724841447471
1.5500000000000007 3.1196356795093942
1.6000000000000008 3.1273278698684797
1.6500000000000008 3.1352479909115734
1.7000000000000008 3.1433949927581906
1.7500000000000009 3.1517678407549821
1.8000000000000009 3.1603655160431159
1.8500000000000010 3.1691870159127080
1.9000000000000010 3.1782313539620803
1.9500000000000011 3.1874975600806268
2.0000000000000009 3.1969846802745328
2.0500000000000007 3.2066917763544729
2.1000000000000005 3.2166179255041203
2.1500000000000004 3.2267622197474801
2.2000000000000002 3.2371237653322917
2.2500000000000000 3.2477016820450331
2.2999999999999998 3.2584951024719087
2.3499999999999996 3.2695031712182141
2.3999999999999995 3.2807250440968008
2.4499999999999993 3.2921598872943814
2.4999999999999991 3.3038068765222870
2.5499999999999989 3.3156651961567216
2.5999999999999988 3.3277340383711724
2.6499999999999986 3.3400126022622443
2.6999999999999984 3.3525000929681150
2.7499999999999982 3.3651957207777490
2.7999999999999980 3.3780987002271226
2.8499999999999979 3.3912082491780939
2.8999999999999977 3.4045235878741016
2.9499999999999975 3.4180439379666643
2.9999999999999973 3.4317685215059024
3.0499999999999972 3.4456965598881584
3.0999999999999970 3.4598272727536084
3.1499999999999968 3.4741598768273021
3.1999999999999966 3.4886935846968594
3.2499999999999964 3.5034276035212106
3.2999999999999963 3.5183611336655924
3.3499999999999961 3.5334933672575684
3.3999999999999959 3.5488234866616066
3.4499999999999957 3.5643506628698263
3.4999999999999956 3.5800740538071447
3.5499999999999954 3.5959928025516898
3.5999999999999952 3.6121060354712498
3.6499999999999950 3.6284128602780568
3.6999999999999948 3.6449123640054664
3.7499999999999947 3.6616036109117500
3.7999999999999945 3.6784856403159885
3.8499999999999943 3.6955574643735414
3.8999999999999941 3.7128180657983667
3.9499999999999940 3.7302663955414057
3.9999999999999938 3.7479013704335369
4.0499999999999936 3.7657218708047151
4.0999999999999934 3.7837267380886530
4.1499999999999932 3.8019147724254427
4.1999999999999931 3.8202847302736598
4.2499999999999929 3.8388353220440647
4.2999999999999927 3.8575652097674955
4.3499999999999925 3.8764730048108129
4.3999999999999924 3.8955572656518829
4.4499999999999922 3.9148164957291525
4.4999999999999920 3.9342491413770477
4.5499999999999918 3.9538535898619287
4.5999999999999917 3.9736281675309479
4.6499999999999915 3.9935711380873800
4.6999999999999913 4.0136807010049260
4.7499999999999911 4.0339549900943572
4.7999999999999909 4.0543920722345410
4.8499999999999908 4.0749899462800787
4.8999999999999906 4.0957465421573458
4.9499999999999904 4.1166597201610138
4.9999999999999902 4.1377272704602168
5.0499999999999901 4.1589469128264644
5.0999999999999899 4.1803162965917187
5.1499999999999897 4.2018330008464888
5.1999999999999895 4.2234945348850799
5.2499999999999893 4.2452983389063723
5.2999999999999892 4.2672417849757505
5.3499999999999890 4.2893221782534185
5.3999999999999888 4.3115367584946886
5.4499999999999886 4.3338827018247761
5.4999999999999885 4.3563571227886539
5.5499999999999883 4.3789570766801198
5.5999999999999881 4.4016795621463505
5.6499999999999879 4.4245215240688349
5.6999999999999877 4.4474798567151126
5.7499999999999876 4.4705514071598227
5.7999999999999874 4.4937329789658413
5.8499999999999872 4.5170213361220268
5.8999999999999870 4.5404132072257335
5.9499999999999869 4.5639052899018813
5.9999999999999867 4.5874942554475524
6.0499999999999865 4.6111767536885964
6.0999999999999863 4.6349494180349060
6.1499999999999861 4.6588088707180155
6.1999999999999860 4.6827517281984266
6.2499999999999858 4.7067746067202387
6.2999999999999856 4.7308741279973727
6.3499999999999854 4.7550469250137137
6.3999999999999853 4.7792896479111766
6.4499999999999851 4.8035989699510520
6.4999999999999849 4.8279715935214789
6.5499999999999847 4.8524042561708995
6.5999999999999845 4.8768937366428071
6.6499999999999844 4.9014368608901142
6.6999999999999842 4.9260305080415918
6.7499999999999840 4.9506716162979414
6.7999999999999838 4.9753571887322954
6.8499999999999837 5.0000842989698828
6.8999999999999835 5.0248500967209617
6.9499999999999833 5.0496518131442256
6.9999999999999831 5.0744867660136359
7.0499999999999829 5.0993523646652754
7.0999999999999828 5.1242461147006111
7.1499999999999826 5.1491656224210649
7.1999999999999824 5.1741085989736462
7.2499999999999822 5.1990728641846431
7.2999999999999821 5.2240563500589960
7.3499999999999819 5.2490571039282026
7.3999999999999817 5.2740732912281256
7.4499999999999815 5.2991031978867538
7.4999999999999813 5.3241452323115066
7.5499999999999812 5.3491979269574106
7.5999999999999810 5.3742599394699146
7.6499999999999808 5.3993300533871613
7.6999999999999806 5.4244071783981855
7.7499999999999805 5.4494903501514012
7.7999999999999803 5.4745787296094113
7.8499999999999801 5.4996716019488936
7.8999999999999799 5.5247683750134753
7.9499999999999797 5.5498685773158556
7.9999999999999796 5.5749718556044128
8.0499999999999794 5.6000779720004408
8.0999999999999801 5.6251868007199421
8.1499999999999808 5.6502983243960792
8.1999999999999815 5.6754126300186538
8.2499999999999822 5.7005299045142221
8.2999999999999829 5.7256504299859410
8.3499999999999837 5.7507745786418427
8.3999999999999844 5.7759028074377161
8.4499999999999851 5.8010356524607189
8.4999999999999858 5.8261737230907942
8.5499999999999865 5.8513176959668458
8.5999999999999872 5.8764683087937977
8.6499999999999879 5.9016263540249208
8.6999999999999886 5.9267926724556563
8.7499999999999893 5.9519681467625105
8.7999999999999901 5.9771536950264581
8.8499999999999908 6.0023502642737467
8.8999999999999915 6.0275588240739646
8.9499999999999922 6.0527803602243875
8.9999999999999929 6.0780158685622592
9.0499999999999936 6.1032663489326087
9.0999999999999943 6.1285327993462397
9.1499999999999950 6.1538162103565686
9.1999999999999957 6.1791175596860821
9.2499999999999964 6.2044378071236217
9.2999999999999972 6.2297778897265905
9.3499999999999979 6.2551387173377568
9.3999999999999986 6.2805211684455715
9.4499999999999993 6.3059260864001319
9.5000000000000000 6.3313542760012158
9.5500000000000007 6.3568065004668259
9.6000000000000014 6.3822834787965395
9.6500000000000021 6.4077858835299670
9.7000000000000028 6.4333143389050571
9.7500000000000036 6.4588694194197132
9.8000000000000043 6.4844516487906452
9.8500000000000050 6.5100614993060555
9.9000000000000057 6.5356993915676043
9.9500000000000064 6.5613656946035910
10.000000000000007 6.5870607263542409
10.050000000000008 6.6127847545001943
10.100000000000009 6.6385379976311603
10.150000000000009 6.6643206267273003
10.200000000000010 6.6901327669379587
10.250000000000011 6.7159744996342408
10.300000000000011 6.7418458647150841
10.350000000000012 6.7677468631407267
10.400000000000013 6.7936774596678546
10.450000000000014 6.8196375857665394
10.500000000000014 6.8456271426827229
10.550000000000015 6.8716460046286256
10.600000000000016 6.8976940220693974
10.650000000000016 6.9237710250800992
10.700000000000017 6.9498768267467552
10.750000000000018 6.9760112265816723
10.800000000000018 7.0021740139316719
10.850000000000019 7.0283649713494816
10.900000000000020 7.0545838779077767
10.950000000000021 7.0808305124269806
11.000000000000021 7.1071046565980165
11.050000000000022 7.1334060979777716
11.100000000000023 7.1597346328387772
11.150000000000023 7.1860900688471228
11.200000000000024 7.2124722275638895
11.250000000000025 7.2388809467445894
11.300000000000026 7.2653160824280674
11.350000000000026 7.2917775108022687
11.400000000000027 7.3182651298339305
11.450000000000028 7.3447788606625224
11.500000000000028 7.3713186487437410
11.550000000000029 7.3978844647421491
11.600000000000030 7.4244763051732843
11.650000000000031 7.4510941927920937
11.700000000000031 7.4777381767310924
11.750000000000032 7.5044083323918711
11.800000000000033 7.5311047610946114
11.850000000000033 7.5578275894983618
11.900000000000034 7.5845769687908628
11.950000000000035 7.6113530736710695
12.000000000000036 7.6381561011251780
12.050000000000036 7.6649862690186197
12.100000000000037 7.6918438145139207
12.150000000000038 7.7187289923302647
12.200000000000038 7.7456420728661737
12.250000000000039 7.7725833401960713
12.300000000000040 7.7995530899654595
12.350000000000041 7.8265516271984392
12.400000000000041 7.8535792640402375
12.450000000000042 7.8806363174532272
12.500000000000043 7.9077231068847524
12.550000000000043 7.9348399519262989
12.600000000000044 7.9619871699830744
12.650000000000045 7.9891650739740294
12.700000000000045 8.0163739700759127
12.750000000000046 8.0436141555357548
12.800000000000047 8.0708859165607887
12.850000000000048 8.0981895263038570
12.900000000000048 8.1255252429622153
12.950000000000049 8.1528933079975321
13.000000000000050 8.1802939444916110
13.050000000000050 8.2077273556509436
13.100000000000051 8.2351937234622241
13.150000000000052 8.2626932075158308
13.200000000000053 8.2902259439962993
13.250000000000053 8.3177920448487388
13.300000000000054 8.3453915971232249
13.350000000000055 8.3730246624989348
13.400000000000055 8.4006912769884430
13.450000000000056 8.4283914508222555
13.500000000000057 8.4561251685102263
13.550000000000058 8.4838923890739988
13.600000000000058 8.5116930464490608
13.650000000000059 8.5395270500486493
13.700000000000060 8.5673942854784553
13.750000000000060 8.5952946153977425
13.800000000000061 8.6232278805165503
13.850000000000062 8.6511939007138139
13.900000000000063 8.6791924762703161
13.950000000000063 8.7072233892013067
14.000000000000064 8.7352864046773782
14.050000000000065 8.7633812725171083
14.100000000000065 8.7915077287433334
14.150000000000066 8.8196654971805657
14.200000000000067 8.8478542910900160
14.250000000000068 8.8760738148201490
14.300000000000068 8.9043237654608909
14.350000000000069 8.9326038344909531
14.400000000000070 8.9609137093978681
14.450000000000070 8.9892530752645037
14.500000000000071 9.0176216163089293
14.550000000000072 9.0460190173585353
14.600000000000072 9.0744449652579444
14.650000000000073 9.1028991501944763
14.700000000000074 9.1313812669299601
14.750000000000075 9.1598910159343081
14.800000000000075 9.1884281044134131
14.850000000000076 9.2169922472237538
14.900000000000077 9.2455831676674620
14.950000000000077 9.2742005981627749
15.000000000000078 9.3028442807953091
15.050000000000079 9.3315139677338710
15.100000000000080 9.3602094215230931
15.150000000000080 9.3889304152466639
15.200000000000081 9.4176767325630237
15.250000000000082 9.4464481676194190
15.300000000000082 9.4752445248440562
15.350000000000083 9.5040656186228620
15.400000000000084 9.5329112728647960
15.450000000000085 9.5617813204665527
15.500000000000085 9.5906756026779796
15.550000000000086 9.6195939683782754
15.600000000000087 9.6485362732754965
15.650000000000087 9.6775023790301997
15.700000000000088 9.7064921523244987
15.750000000000089 9.7355054638705116
15.800000000000090 9.7645421873848299
15.850000000000090 9.7936021985304933
15.900000000000091 9.8226853738373485
15.950000000000092 9.8517915896137715
16.000000000000092 9.8809207208581817
16.050000000000093 9.9100726401837385
16.100000000000094 9.9392472167634427
16.150000000000095 9.9684443153023174
16.200000000000095 9.9976637950550931
16.250000000000096 10.026905508889344
16.300000000000097 10.056169302407167
16.350000000000097 10.085455013128087
16.400000000000098 10.114762469747646
16.450000000000099 10.144091491469624
16.500000000000099 10.173441887422600
16.550000000000100 10.202813456162195
16.600000000000101 10.232205985266472
16.650000000000102 10.261619251021463
16.700000000000102 10.291053018203939
16.750000000000103 10.320507039960761
16.800000000000104 10.349981057785232
16.850000000000104 10.379474801583946
16.900000000000105 10.408987989844787
16.950000000000106 10.438520329892874
17.000000000000107 10.468071518234781
17.050000000000107 10.497641240987843
17.100000000000108 10.527229174391888
17.150000000000109 10.556834985391827
17.200000000000109 10.586458332289407
17.250000000000110 10.616098865460675
17.300000000000111 10.645756228125926
17.350000000000112 10.675430057167105
17.400000000000112 10.705119983992244
17.450000000000113 10.734825635421995
17.500000000000114 10.764546634612936
17.550000000000114 10.794282601988380
17.600000000000115 10.824033156182640
17.650000000000116 10.853797914982700
17.700000000000117 10.883576496267558
17.750000000000117 10.913368518926788
17.800000000000118 10.943173603758877
17.850000000000119 10.972991374339012
17.900000000000119 11.002821457849732
17.950000000000120 11.032663485871321
18.000000000000121 11.062517095117743
18.050000000000122 11.092381928122862
18.100000000000122 11.122257633864399
18.150000000000123 11.152143868325396
18.200000000000124 11.182040294987610
18.250000000000124 11.211946585258110
18.300000000000125 11.241862418818371
18.350000000000126 11.271787483905673
18.400000000000126 11.301721477513265
18.450000000000127 11.331664105522442
18.500000000000128 11.361615082755623
18.550000000000129 11.391574132958345
18.600000000000129 11.421540988710436
18.650000000000130 11.451515391266664
18.700000000000131 11.481497090332105
18.750000000000131 11.511485843779688
18.800000000000132 11.541481417304176
18.850000000000133 11.571483584023882
18.900000000000134 11.601492124037563
18.950000000000134 11.631506823932167
19.000000000000135 11.661527476260604
19.050000000000136 11.691553878983290
19.100000000000136 11.721585834881685
19.150000000000137 11.751623150962363
19.200000000000138 11.781665637837111
19.250000000000139 11.811713109105181
19.300000000000139 11.841765380728498
19.350000000000140 11.871822270419727
19.400000000000141 11.901883597038395
19.450000000000141 11.931949180004262
19.500000000000142 11.962018838737434
19.550000000000143 11.992092392123569
19.600000000000144 12.022169658016589
19.650000000000144 12.052250452774976
19.700000000000145 12.082334590846726
19.750000000000146 12.112421884394637
19.800000000000146 12.142512142972249
19.850000000000147 12.172605173249657
19.900000000000148 12.202700778804974
19.950000000000149 12.232798759949151
20.000000000000149 12.262898913628460
20.050000000000150 12.293001033371540
20.100000000000151 12.323104909299937
20.150000000000151 12.353210328189158
20.200000000000152 12.383317073589398
20.250000000000153 12.413424925997175
20.300000000000153 12.443533663079043
20.350000000000154 12.473643059944967
20.400000000000155 12.503752889467972
20.450000000000156 12.533862922642667
20.500000000000156 12.563972928985470
20.550000000000157 12.594082676969151
20.600000000000158 12.624191934488179
20.650000000000158 12.654300469345642
20.700000000000159 12.684408049766944
20.750000000000160 12.714514444924980
20.800000000000161 12.744619425478911
20.850000000000161 12.774722764116230
20.900000000000162 12.804824236099696
20.950000000000163 12.834923619805782
21.000000000000163 12.865020697259226
21.050000000000164 12.895115254647028
21.100000000000165 12.925207082821531
21.150000000000166 12.955295977777471
21.200000000000166 12.985381741101502
21.250000000000167 13.015464180394586
21.300000000000168 13.045543109656272
21.350000000000168 13.075618349635659
21.400000000000169 13.105689728143815
21.450000000000170 13.135757080321087
21.500000000000171 13.165820248861300
21.550000000000171 13.195879084189476
21.600000000000172 13.225933444601004
21.650000000000173 13.255983196344649
21.700000000000173 13.286028213662348
21.750000000000174 13.316068378787843
21.800000000000175 13.346103581888162
21.850000000000176 13.376133720967548
21.900000000000176 13.406158701731835
21.950000000000177 13.436178437401981
22.000000000000178 13.466192848501661
22.050000000000178 13.496201862591278
22.100000000000179 13.526205413984323
22.150000000000180 13.556203443426563
22.200000000000180 13.586195897749302
22.250000000000181 13.616182729500228
22.300000000000182 13.646163896550624
22.350000000000183 13.676139361695064
22.400000000000183 13.706109092232785
22.450000000000184 13.736073059546113
22.500000000000185 13.766031238671976
22.550000000000185 13.795983607876023
22.600000000000186 13.825930148233063
22.650000000000187 13.855870843209258
22.700000000000188 13.885805678263413
22.750000000000188 13.915734640463384
22.800000000000189 13.945657718116871
22.850000000000190 13.975574900428937
22.900000000000190 14.005486177183210
22.950000000000191 14.035391538451290
23.000000000000192 14.065290974326585
23.050000000000193 14.095184474702176
23.100000000000193 14.125072029064897
23.150000000000194 14.154953626341495
23.200000000000195 14.184829254770344
23.250000000000195 14.214698901809772
23.300000000000196 14.244562554085110
23.350000000000197 14.274420197373178
23.400000000000198 14.304271816621867
23.450000000000198 14.334117395996291
23.500000000000199 14.363956918975225
23.550000000000200 14.393790368461467
23.600000000000200 14.423617726939769
23.650000000000201 14.453438976651389
23.700000000000202 14.483254099796548
23.750000000000203 14.513063078762450
23.800000000000203 14.542865896378654
23.850000000000204 14.572662536173974
23.900000000000205 14.602452982664397
23.950000000000205 14.632237221641848
24.000000000000206 14.662015240482306
24.050000000000207 14.691787028450072
24.100000000000207 14.721552577004406
24.150000000000208 14.751311880112038
24.200000000000209 14.781064934547357
24.250000000000210 14.810811740192383
24.300000000000210 14.840552300317942
24.350000000000211 14.870286621860053
24.400000000000212 14.900014715669718
24.450000000000212 14.929736596755276
24.500000000000213 14.959452284497937
24.550000000000214 14.989161802843752
24.600000000000215 15.018865180467097
24.650000000000215 15.048562450916879
24.700000000000216 15.078253652730286
24.750000000000217 15.107938829508957
24.800000000000217 15.137618029982429
24.850000000000218 15.167291308026265
24.900000000000219 15.196958722655339
24.950000000000220 15.226620337988900
25.000000000000220 15.256276223180899
25.050000000000221 15.285926452329370
25.100000000000222 15.315571104346612
25.150000000000222 15.345210262803498
25.200000000000223 15.374844015765829
25.250000000000224 15.404472455580468
25.300000000000225 15.434095678653247
25.350000000000225 15.463713785212155
25.400000000000226 15.493326879045499
25.450000000000227 15.522935067220899
25.500000000000227 15.552538459795935
25.550000000000228 15.582137169524254
25.600000000000229 15.611731311544354
25.650000000000230 15.641321003070887
25.700000000000230 15.670906363074737
25.750000000000231 15.700487511981645
25.800000000000232 15.730064571347844
25.850000000000232 15.759637663565846
25.900000000000233 15.789206911562694
25.950000000000234 15.818772438521021
26.000000000000234 15.848334367601927
26.050000000000235 15.877892821687784
26.100000000000236 15.907447923146989
26.150000000000237 15.936999793608727
26.200000000000237 15.966548553760896
26.250000000000238 15.996094323178147
26.300000000000239 16.025637220163514
26.350000000000239 16.055177361607740
26.400000000000240 16.084714862893957
26.450000000000241 16.114249837807336
26.500000000000242 16.143782398477754
26.550000000000242 16.173312655346482
26.600000000000243 16.202840717159411
26.650000000000244 16.232366690980804
26.700000000000244 16.261890682230252
26.750000000000245 16.291412794748005
26.800000000000246 16.320933130864908
26.850000000000247 16.350451791521163
26.900000000000247 16.379968876372711
26.950000000000248 16.409484483920412
27.000000000000249 16.438998711683812
27.050000000000249 16.468511656334982
27.100000000000250 16.498023413892884
27.150000000000251 16.527534079890724
27.200000000000252 16.557043749567232
27.250000000000252 16.586552518061456
27.300000000000253 16.616060480597401
27.350000000000254 16.645567732679787
27.400000000000254 16.675074370282552
27.450000000000255 16.704580490028988
27.500000000000256 16.734086189377635
27.550000000000257 16.763591566776007
27.600000000000257 16.793096721825254
27.650000000000258 16.822601755424632
27.700000000000259 16.852106769895368
27.750000000000259 16.881611869102521
27.800000000000260 16.911117158547249
27.850000000000261 16.940622745438890
27.900000000000261 16.970128738768693
27.950000000000262 16.999635249338880
28.000000000000263 17.029142389787090
28.050000000000264 17.058650274587023
28.100000000000264 17.088159020029885
28.150000000000265 17.117668744173596
28.200000000000266 17.147179566789347
28.250000000000266 17.176691609280283
28.300000000000267 17.206204994580268
28.350000000000268 17.235719847038002
28.400000000000269 17.265236292279873
28.450000000000269 17.294754457061188
28.500000000000270 17.324274469104399
28.550000000000271 17.353796456918044
28.600000000000271 17.383320549605898
28.650000000000272 17.412846876676433
28.700000000000273 17.442375567829284
28.750000000000274 17.471906752744296
28.800000000000274 17.501440560870570
28.850000000000275 17.530977121199005
28.900000000000276 17.560516562051983
28.950000000000276 17.590059010861683
29.000000000000277 17.619604593955909
29.050000000000278 17.649153436347955
29.100000000000279 17.678705661538039
29.150000000000279 17.708261391317315
29.200000000000280 17.737820745584802
29.250000000000281 17.767383842176450
29.300000000000281 17.796950796709712
29.350000000000282 17.826521722430702
29.400000000000283 17.856096730091235
29.450000000000284 17.885675927834630
29.500000000000284 17.915259421092141
29.550000000000285 17.944847312515012
29.600000000000286 17.974439701897964
29.650000000000286 18.004036686154677
29.700000000000287 18.033638359271201
29.750000000000288 18.063244812307136
29.800000000000288 18.092856133410649
29.850000000000289 18.122472407833591
29.900000000000290 18.152093717979074
29.950000000000291 18.181720143460058
30.000000000000291 18.211351761172605
30.050000000000292 18.240988645382792
30.100000000000293 18.270630867818685
30.150000000000293 18.300278497791506
30.200000000000294 18.329931602311728
30.250000000000295 18.359590246213450
30.300000000000296 18.389254492292430
30.350000000000296 18.418924401446368
30.400000000000297 18.448600032824775
30.450000000000298 18.478281443968253
30.500000000000298 18.507968690959142
30.550000000000299 18.537661828566925
30.600000000000300 18.567360910391915
30.650000000000301 18.597065989007444
30.700000000000301 18.626777116089993
30.750000000000302 18.656494342547873
30.800000000000303 18.686217718640869
30.850000000000303 18.715947294090530
30.900000000000304 18.745683118169509
30.950000000000305 18.775425239804552
31.000000000000306 18.805173707640080
31.050000000000306 18.834928570105298
31.100000000000307 18.864689875460055
31.150000000000308 18.894457671831592
31.200000000000308 18.924232007230035
31.250000000000309 18.954012929558498
31.300000000000310 18.983800486603545
31.350000000000311 19.013594726012521
31.400000000000311 19.043395695252215
31.450000000000312 19.073203441560135
31.500000000000313 19.103018011886721
31.550000000000313 19.132839452813453
31.600000000000314 19.162667810466800
31.650000000000315 19.192503130419404
31.700000000000315 19.222345457587455
31.750000000000316 19.252194836105630
31.800000000000317 19.282051309221718
31.850000000000318 19.311914919145995
31.900000000000318 19.341785706934076
31.950000000000319 19.371663712348369
32.000000000000320 19.401548973711147
32.050000000000317 19.431441527774130
32.100000000000314 19.461341409574665
32.150000000000311 19.491248652307053
32.200000000000308 19.521163287182244
32.250000000000306 19.551085343302489
32.300000000000303 19.581014847539368
32.350000000000300 19.610951824423445
32.400000000000297 19.640896296034121
32.450000000000294 19.670848281899353
32.500000000000291 19.700807798914035
32.550000000000288 19.730774861261455
32.600000000000286 19.760749480349858
32.650000000000283 19.790731664753785
32.700000000000280 19.820721420182586
32.750000000000277 19.850718749448298
32.800000000000274 19.880723652452282
32.850000000000271 19.910736126183586
32.900000000000269 19.940756164729084
32.950000000000266 19.970783759302712
33.000000000000263 20.000818898278162
33.050000000000260 20.030861567239548
33.100000000000257 20.060911749043928
33.150000000000254 20.090969423886090
33.200000000000252 20.121034569386726
33.250000000000249 20.151107160682940
33.300000000000246 20.181187170521799
33.350000000000243 20.211274569374044
33.400000000000240 20.241369325536304
33.450000000000237 20.271471405260286
33.500000000000234 20.301580772864064
33.550000000000232 20.331697390864154
33.600000000000229 20.361821220104659
33.650000000000226 20.391952219865413
33.700000000000223 20.422090348010826
33.750000000000220 20.452235561096970
33.800000000000217 20.482387814495500
33.850000000000215 20.512547062518024
33.900000000000212 20.542713258514549
33.950000000000209 20.572886354991688
34.000000000000206 20.603066303699812
34.050000000000203 20.633253055720250
34.100000000000200 20.663446561564676
34.150000000000198 20.693646771222355
34.200000000000195 20.723853634241912
34.250000000000192 20.754067099762377
34.300000000000189 20.784287116573932
34.350000000000186 20.814513633137327
34.400000000000183 20.844746597594266
34.450000000000180 20.874985957787501
34.500000000000178 20.905231661248731
34.550000000000175 20.935483655184839
34.600000000000172 20.965741886451816
34.650000000000169 20.996006301515823
34.700000000000166 21.026276846415250
34.750000000000163 21.056553466692964
34.800000000000161 21.086836107343299
34.850000000000158 21.117124712733744
34.900000000000155 21.147419226531110
34.950000000000152 21.177719591607790
35.000000000000149 21.208025749961116
35.050000000000146 21.238337642611260
35.100000000000144 21.268655209506420
35.150000000000141 21.298978389421453
35.200000000000138 21.329307119856402
35.250000000000135 21.359641336933496
35.300000000000132 21.389980975293412
35.350000000000129 21.420325967996501
35.400000000000126 21.450676246420532
35.450000000000124 21.481031740175400
35.500000000000121 21.511392376999058
35.550000000000118 21.541758082680225
35.600000000000115 21.572128780976016
35.650000000000112 21.602504393537295
35.700000000000109 21.632884839838603
35.750000000000107 21.663270037121006
35.800000000000104 21.693659900334225
35.850000000000101 21.724054342094991
35.900000000000098 21.754453272653596
35.950000000000095 21.784856599860323
36.000000000000092 21.815264229143171
36.050000000000090 21.845676063495070
36.100000000000087 21.876092003477467
36.150000000000084 21.906511947210237
36.200000000000081 21.936935790390255
36.250000000000078 21.967363426306168
36.300000000000075 21.997794745857700
36.350000000000072 22.028229637585827
36.400000000000070 22.058667987708983
36.450000000000067 22.089109680160380
36.500000000000064 22.119554596615593
36.550000000000061 22.150002616552158
36.600000000000058 22.180453617286961
36.650000000000055 22.210907474023475
36.700000000000053 22.241364059893762
36.750000000000050 22.271823246005937
36.800000000000047 22.302284901479254
36.850000000000044 22.332748893495747
36.900000000000041 22.363215087322857
36.950000000000038 22.393683346344396
37.000000000000036 22.424153532092436
37.050000000000033 22.454625504257351
37.100000000000030 22.485099120697505
37.150000000000027 22.515574237450767
37.200000000000024 22.546050708714663
37.250000000000021 22.576528386841016
37.300000000000018 22.607007122305863
37.350000000000016 22.637486763669934
37.400000000000013 22.667967157542517
37.450000000000010 22.698448148509648
37.500000000000007 22.728929579077036
37.550000000000004 22.759411289587053
37.600000000000001 22.789893118123448
37.649999999999999 22.820374900419917
37.699999999999996 22.850856469735319
37.749999999999993 22.881337656739021
37.799999999999990 22.911818289376914
37.849999999999987 22.942298192720717
37.899999999999984 22.972777188825358
37.949999999999982 23.003255096556632
37.999999999999979 23.033731731434688
38.049999999999976 23.064206905445484
38.099999999999973 23.094680426865636
38.149999999999970 23.125152100067194
38.199999999999967 23.155621725320863
38.249999999999964 23.186089098607162
38.299999999999962 23.216554011404682
38.349999999999959 23.247016250489807
38.399999999999956 23.277475597727580
38.449999999999953 23.307931829869325
38.499999999999950 23.338384718338649
38.549999999999947 23.368834029032126
38.599999999999945 23.399279522115943
38.649999999999942 23.429720951819345
38.699999999999939 23.460158066240083
38.749999999999936 23.490590607152210
38.799999999999933 23.521018309816615
38.849999999999930 23.551440902799712
38.899999999999928 23.581858107799320
38.949999999999925 23.612269639469702
38.999999999999922 23.642675205263483
39.049999999999919 23.673074505275608
39.099999999999916 23.703467232106910
39.149999999999913 23.733853070709308
39.199999999999910 23.764231698270965
39.249999999999908 23.794602784088060
39.299999999999905 23.824965989463198
39.349999999999902 23.855320967590082
39.399999999999899 23.885667363471498
39.449999999999896 23.916004813832455
39.499999999999893 23.946332947044805
39.549999999999891 23.976651383053607
39.599999999999888 24.006959733337396
39.649999999999885 24.037257600842050
39.699999999999882 24.067544579945608
39.749999999999879 24.097820256427212
39.799999999999876 24.128084207439347
39.849999999999874 24.158336001490714
39.899999999999871 24.188575198436130
39.949999999999868 24.218801349473040
39.999999999999865 24.249013997141436
